NRF24.c:30:6:DWT_Init	4	static
NRF24.c:36:6:delay_us	24	static
NRF24.c:43:6:csn	16	static
NRF24.c:49:6:ce	16	static
NRF24.c:54:9:read_register	32	static
NRF24.c:71:9:write_registerMy	32	static
NRF24.c:83:9:write_register	32	static
NRF24.c:94:9:write_payload	40	static
NRF24.c:117:9:read_payload	32	static
NRF24.c:144:9:flush_rx	8	static
NRF24.c:149:9:flush_tx	8	static
NRF24.c:154:9:spiTrans	32	static
NRF24.c:163:9:get_status	8	static
NRF24.c:168:6:setChannel	16	static
NRF24.c:173:9:getChannel	8	static
NRF24.c:178:6:setPayloadSize	16	static
NRF24.c:183:9:getPayloadSize	4	static
NRF24.c:188:9:NRF_Set_Config_Init	32	static
NRF24.c:238:9:NRF_Init	24	static
NRF24.c:284:6:isChipConnected	16	static
NRF24.c:296:6:startListening	8	static
NRF24.c:322:6:stopListening	8	static
NRF24.c:337:6:powerDown	8	static
NRF24.c:344:6:powerUp	16	static
NRF24.c:357:6:write	24	static
NRF24.c:377:6:startFastWrite	16	static
NRF24.c:387:6:maskIRQ	24	static
NRF24.c:395:9:getDynamicPayloadSize	24	static
NRF24.c:414:6:availableMy	8	static
NRF24.c:419:6:available	24	static
NRF24.c:435:6:read	16	static
NRF24.c:442:9:whatHappened	16	static
NRF24.c:451:6:openWritingPipe	16	static
NRF24.c:464:6:openReadingPipe	24	static
NRF24.c:484:6:setAddressWidth	16	static
NRF24.c:498:6:closeReadingPipe	16	static
NRF24.c:503:6:toggle_features	16	static
NRF24.c:512:6:enableDynamicPayloads	8	static
NRF24.c:519:6:disableDynamicPayloads	8	static
NRF24.c:526:6:enableAckPayload	8	static
NRF24.c:533:6:enableDynamicAck	8	static
NRF24.c:538:6:writeAckPayload	24	static
NRF24.c:549:6:isAckPayloadAvailable	8	static
NRF24.c:554:6:isPVariant	4	static
NRF24.c:559:6:setAutoAck	16	static
NRF24.c:567:6:setAutoAckPipe	24	static
NRF24.c:586:6:setPALevel	24	static
NRF24.c:602:9:getPALevel	8	static
NRF24.c:607:6:setDataRate	24	static
NRF24.c:639:17:getDataRate	16	static
NRF24.c:662:6:setCRCLength	24	static
NRF24.c:683:18:getCRCLength	16	static
NRF24.c:701:6:disableCRC	16	static
NRF24.c:707:6:setRetries	16	static
