tim.c:31:6:MX_TIM1_Init	96	static
tim.c:98:6:MX_TIM2_Init	32	static
tim.c:126:6:HAL_TIM_Base_MspInit	24	static
tim.c:142:6:HAL_TIMEx_HallSensor_MspInit	40	static
tim.c:170:6:HAL_TIM_MspPostInit	40	static
tim.c:207:6:HAL_TIM_Base_MspDeInit	16	static
tim.c:223:6:HAL_TIMEx_HallSensor_MspDeInit	16	static
